…
sex_da
```

```
## # A tibble: 449 × 6
##    DAUID    total male_total fem_total prop_men prop_women
##    <chr>    <dbl>      <dbl>     <dbl>    <dbl>      <dbl>
##  1 47110021   720        360       350    0.5        0.486
##  2 47110022   344        160       180    0.465      0.523
##  3 47110027   519        260       265    0.501      0.511
##  4 47110028   397        220       180    0.554      0.453
##  5 47110029   364        185       190    0.508      0.522
##  6 47110030   595        290       305    0.487      0.513
##  7 47110031   492        255       235    0.518      0.478
##  8 47110032   236        120       125    0.508      0.530
##  9 47110033   437        195       245    0.446      0.561
## 10 47110035   418        195       220    0.467      0.526
## # ℹ 439 more rows
```
…
Overall prevalence by DA


``` r
prev_da <- cases_da %>%
  left_join(den_all, by = "DAUID") %>%
  mutate(prev_all = if_else(pop_all > 0, cases_all / pop_all, NA_real_))

prev_da
```

```
## # A tibble: 344 × 4
##    DAUID    cases_all pop_all prev_all
##    <chr>        <int>   <dbl>    <dbl>
##  1 47110021        10     720  0.0139 
##  2 47110022         2     344  0.00581
##  3 47110027         3     519  0.00578
##  4 47110028         3     397  0.00756
##  5 47110029         2     364  0.00549
##  6 47110030         3     595  0.00504
##  7 47110031         7     492  0.0142 
##  8 47110032         3     236  0.0127 
##  9 47110033         3     437  0.00686
## 10 47110035        17     418  0.0407 
## # ℹ 334 more rows
```

Sex-specific prevalence by DA


``` r
prev_da_sex <- cases_da_sex %>%
  left_join(den_sex, by = c("DAUID","gender")) %>%
  mutate(prev = if_else(pop > 0, cases / pop, NA_real_))

prev_da_sex
```

```
## # A tibble: 620 × 5
##    DAUID    gender cases   pop    prev
##    <chr>    <chr>  <int> <dbl>   <dbl>
##  1 47110021 Female     7   350 0.02   
##  2 47110021 Male       3   360 0.00833
##  3 47110022 Female     2   180 0.0111 
##  4 47110027 Male       3   260 0.0115 
##  5 47110028 Female     3   180 0.0167 
##  6 47110029 Male       2   185 0.0108 
##  7 47110030 Female     1   305 0.00328
##  8 47110030 Male       2   290 0.00690
##  9 47110031 Female     7   235 0.0298 
## 10 47110032 Male       3   120 0.025  
## # ℹ 610 more rows
```
…
